Gov 50 Final Project
…
Cleaning data

education_graph <- southasian_countries_edu |>
  select(country , year, series, value) |>
  pivot_wider(names_from = series,
        values_from = value)
education_graph

# A tibble: 30 × 5
   country     year Ratio of girls to boys in…¹ Ratio of girls to bo…²
   <chr>      <dbl>                       <dbl>                  <dbl>
 1 Bangladesh  2005                        1.05                   1.07
 2 Bangladesh  2010                        1.06                   1.12
 3 Bangladesh  2018                        1.07                   1.16
 4 Bangladesh  2020                        1.09                   1.21
 5 Bangladesh  2015                       NA                      1.13
 6 Bangladesh  2019                       NA                      1.17
 7 India       1995                        0.83                   0.65
 8 India       2010                        1.03                   0.94
 9 India       2015                        1.12                   1.02
10 India       2019                        1.02                   1.02
# ℹ 20 more rows
# ℹ abbreviated names:
#   ¹​`Ratio of girls to boys in primary education`,
#   ²​`Ratio of girls to boys in secondary education`
# ℹ 1 more variable:
#   `Ratio of girls to boys in upper secondary education` <dbl>

Joining the main datasets

joined_data <- southasian_countries |>
  left_join(education_graph , by = c("country", "year")) |>
  rename(primary_education_ratio = "Ratio of girls to boys in primary education",
         secondary_eductation_ratio = "Ratio of girls to boys in secondary education",
         uppersecondary_education_ratio = "Ratio of girls to boys in upper secondary education",
        women_seat_percent = "value") |>
  select(country, year, women_seat_percent, primary_education_ratio, secondary_eductation_ratio, uppersecondary_education_ratio )
joined_data

# A tibble: 43 × 6
   country     year women_seat_percent primary_education_ratio
   <chr>      <dbl>              <dbl>                   <dbl>
 1 Bangladesh  2000                9.1                   NA   
 2 Bangladesh  2005                2                      1.05
 3 Bangladesh  2010               18.6                    1.06
 4 Bangladesh  2015               20                     NA   
 5 Bangladesh  2018               20.3                    1.07
 6 Bangladesh  2019               20.7                   NA   
 7 Bangladesh  2020               20.9                    1.09
 8 Bangladesh  2021               20.9                   NA   
 9 Bangladesh  2022               20.9                   NA   
10 India       2000                9                     NA   
# ℹ 33 more rows
# ℹ 2 more variables: secondary_eductation_ratio <dbl>,
#   uppersecondary_education_ratio <dbl>
…
Access to the internet can provide enhanced educational opportunities for both girls and boys. Additionally, the internet is a powerful tool for raising awareness and promoting empowerment. People who use the internet are conventionally more liberal and therefore may send their girl child to study in school. They are also more likely to promote and support women participation in politics and parliament. On the flip side, if there is a digital gender divide (unequal access to the internet based on gender), it might exacerbate existing gender disparities. This, in turn, could affect the representation of women in parliament and the gender ratio in high schools.

##Loading Confounder data sets

GDP <- read_csv("GDP per capita.csv", skip = 1) |>
 janitor::clean_names() |> 
  rename(country = x2) |>
   filter(country == "India"| country =="Pakistan"|country =="Sri Lanka"|country =="Bangladesh"|country=="Nepal",
          series == "GDP per capita (US dollars)") |>
  rename(gdp_per_capita = "value") |>
  select(country, gdp_per_capita, year )
GDP

# A tibble: 35 × 3
   country    gdp_per_capita  year
   <chr>               <dbl> <dbl>
 1 Bangladesh            321  1995
 2 Bangladesh            409  2005
 3 Bangladesh            829  2010
 4 Bangladesh           1450  2015
 5 Bangladesh           2111  2019
 6 Bangladesh           2231  2020
 7 Bangladesh           2450  2021
 8 India                 386  1995
 9 India                 713  2005
10 India                1346  2010
# ℹ 25 more rows
…
−0.046

−0.132

−0.219

##Result section 1

##joining confounder 1

confounders <- joined_data |>
  left_join(GDP, by = c("country", "year"))
confounders

# A tibble: 43 × 7
   country     year women_seat_percent primary_education_ratio
   <chr>      <dbl>              <dbl>                   <dbl>
 1 Bangladesh  2000                9.1                   NA   
 2 Bangladesh  2005                2                      1.05
 3 Bangladesh  2010               18.6                    1.06
 4 Bangladesh  2015               20                     NA   
 5 Bangladesh  2018               20.3                    1.07
 6 Bangladesh  2019               20.7                   NA   
 7 Bangladesh  2020               20.9                    1.09
 8 Bangladesh  2021               20.9                   NA   
 9 Bangladesh  2022               20.9                   NA   
10 India       2000                9                     NA   
# ℹ 33 more rows
# ℹ 3 more variables: secondary_eductation_ratio <dbl>,
#   uppersecondary_education_ratio <dbl>, gdp_per_capita <dbl>

##joining confounder 2

possible_confounders <- confounders |>
  left_join(internet_usage, by = c("country", "year"))
possible_confounders

# A tibble: 43 × 8
   country     year women_seat_percent primary_education_ratio
   <chr>      <dbl>              <dbl>                   <dbl>
 1 Bangladesh  2000                9.1                   NA   
 2 Bangladesh  2005                2                      1.05
 3 Bangladesh  2010               18.6                    1.06
 4 Bangladesh  2015               20                     NA   
 5 Bangladesh  2018               20.3                    1.07
 6 Bangladesh  2019               20.7                   NA   
 7 Bangladesh  2020               20.9                    1.09
 8 Bangladesh  2021               20.9                   NA   
 9 Bangladesh  2022               20.9                   NA   
10 India       2000                9                     NA   
# ℹ 33 more rows
# ℹ 4 more variables: secondary_eductation_ratio <dbl>,
#   uppersecondary_education_ratio <dbl>, gdp_per_capita <dbl>,
#   percentage_individuals_using_internet <dbl>
…
